COMPSCIX_415.2_Homework7
…
## See spec(...) for full column specifications.

train

## # A tibble: 1,460 x 81
##       Id MSSubClass MSZoning LotFrontage LotArea Street Alley LotShape
##    <int>      <int> <chr>          <int>   <int> <chr>  <chr> <chr>   
##  1     1         60 RL                65    8450 Pave   <NA>  Reg     
##  2     2         20 RL                80    9600 Pave   <NA>  Reg     
##  3     3         60 RL                68   11250 Pave   <NA>  IR1     
##  4     4         70 RL                60    9550 Pave   <NA>  IR1     
##  5     5         60 RL                84   14260 Pave   <NA>  IR1     
##  6     6         50 RL                85   14115 Pave   <NA>  IR1     
##  7     7         20 RL                75   10084 Pave   <NA>  Reg     
##  8     8         60 RL                NA   10382 Pave   <NA>  IR1     
##  9     9         50 RM                51    6120 Pave   <NA>  Reg     
## 10    10        190 RL                50    7420 Pave   <NA>  Reg     
## # ... with 1,450 more rows, and 73 more variables: LandContour <chr>,
## #   Utilities <chr>, LotConfig <chr>, LandSlope <chr>, Neighborhood <chr>,
## #   Condition1 <chr>, Condition2 <chr>, BldgType <chr>, HouseStyle <chr>,
## #   OverallQual <int>, OverallCond <int>, YearBuilt <int>,
## #   YearRemodAdd <int>, RoofStyle <chr>, RoofMatl <chr>,
## #   Exterior1st <chr>, Exterior2nd <chr>, MasVnrType <chr>,
## #   MasVnrArea <int>, ExterQual <chr>, ExterCond <chr>, Foundation <chr>,
## #   BsmtQual <chr>, BsmtCond <chr>, BsmtExposure <chr>,
## #   BsmtFinType1 <chr>, BsmtFinSF1 <int>, BsmtFinType2 <chr>,
…
    # What kind of relationship will these features have with our target?
    # Can the relationship be estimated linearly?
    # Are these good features, given the problem we are trying to solve?
mod_1 <- lm(formula = SalePrice ~ GrLivArea + OverallQual + Neighborhood, data = train)
glance(mod_1)

## # A tibble: 1 x 11
##   r.squared adj.r.squared  sigma statistic p.value    df  logLik    AIC
## *     <dbl>         <dbl>  <dbl>     <dbl>   <dbl> <int>   <dbl>  <dbl>
## 1     0.787         0.783 37009.      203.       0    27 -17416. 34887.
## # ... with 3 more variables: BIC <dbl>, deviance <dbl>, df.residual <int>

tidy(mod_1)

## # A tibble: 27 x 5
##    term                estimate std.error statistic  p.value
##    <chr>                  <dbl>     <dbl>     <dbl>    <dbl>
##  1 (Intercept)         -34829.   11541.       -3.02 2.59e- 3
##  2 GrLivArea               55.6      2.50     22.2  2.38e-94
##  3 OverallQual          20951.    1162.       18.0  1.24e-65
##  4 NeighborhoodBlueste -30753.   27697.       -1.11 2.67e- 1
##  5 NeighborhoodBrDale  -43359.   12979.       -3.34 8.57e- 4
##  6 NeighborhoodBrkSide -13025.   10450.       -1.25 2.13e- 1
##  7 NeighborhoodClearCr  24576.   11570.        2.12 3.38e- 2
##  8 NeighborhoodCollgCr  11414.    9497.        1.20 2.30e- 1
##  9 NeighborhoodCrawfor  14444.   10502.        1.38 1.69e- 1
## 10 NeighborhoodEdwards -17843.    9986.       -1.79 7.42e- 2
## # ... with 17 more rows
…
mod_results

## # A tibble: 1,000 x 2
##      rsq slopes
##    <dbl>  <dbl>
##  1 0.909   1.44
##  2 0.895   1.39
##  3 0.818   1.43
##  4 0.576   1.16
##  5 0.779   1.49
##  6 0.766   1.81
##  7 0.785   1.66
##  8 0.808   1.43
##  9 0.810   1.68
## 10 0.729   1.70
## # ... with 990 more rows
…
